^C:\USERS\TAKAYA\DOCUMENTS\VISUAL STUDIO 2013\PROJECTS\TRANS~\DEBUG\TRANS~.OBJ
C:\USERS\TAKAYA\DOCUMENTS\VISUAL STUDIO 2013\PROJECTS\TRANS~\DEBUG\TRANS~.ILK
C:\USERS\TAKAYA\DOCUMENTS\VISUAL STUDIO 2013\PROJECTS\TRANS~\DEBUG\TRANS~.DLL
C:\USERS\TAKAYA\DOCUMENTS\VISUAL STUDIO 2013\PROJECTS\TRANS~\DEBUG\TRANS~.PDB
